{
  "host": "0.0.0.0",
  "port": 3999,
  "mongodb": {
    "uri": "mongodb://way2pay:way2pay2k18@49.156.147.105:27017/way2pay",
    "Eventsuri":"mongodb://172.16.21.15:27017/way2money_events",
    "W2fDomainUri": "mongodb://way2pay:way2pay2k18@49.156.147.105:27017/way2pay",
    "db": "way2pay"
  },
  "elastic": {
    "url": "http://172.16.20.16:9200/",
    "index": "companies",
    "cities_index": "cities",
    "pincode_index": "pincodes",
    "banks_index": "pay_banks",
    "bank_branches_index": "pay_bank_branches"
  },
  "cros": [],
  "short_url": "http://172.16.20.222:8721/api/create-short-url?long_url=",
  "paymentlinkurl": "http://localhost:4600/payment-by-links?payment_token=",
  "jwtsecret_links": "W@mon^^7))9eYYY$riniVa$aRR@mAnuJ@NNn",
  "jwtsecret": "W@mon^^7))9eYYY$$uper@dmin",
  "jwtsecret_qr": "W@mon^^7))9eYYY$riniVa$aRR@mAnuJ@NNn",
  "images_cdn": "http://localhost:3999/",
  "emails": [
    "anusha.p@way2online.co.in"
  ],
  "Upload_DIR": "../../../../way2money-pay-merchant/uploads",
  "Upload_QR_DIR": "/../../../way2money-pay-merchant/uploads/qr_codes/",
  "X_Api_Key": "c03f0ce828b1773735a824c9c0d636a9",
  "X_Auth_Token": "5a9bf6c4dfe807ce8cff3cbde32eab9f",
  "InstaMojo_url": "https://www.instamojo.com/api/1.1/payments/",
  "smsdb": {
    "hostname": "182.18.153.182",
    "username": "way2sms",
    "password": "waysmsawd#$%@",
    "database": "SMPP"
  },
  "merchant_testing_mobile": "9798989898",
  "merchant_id": "5b7d60272fa85f54579ea10e",
  "serverKey": "AIzaSyAkXqrqe_iS_KR8-s-ENi4yu6Jkzl4TdDI",
  "sendAndroid": 1,
  "sendIos": 1,
  "ios_prod": true,
  "apn": {
    "keyName": "AuthKey_B67AWL62AH.p8",
    "keyId": "B67AWL62AH",
    "teamId": "Y7R3TA6UA9"
  },
  "iosExpiry": 21600,
  "andExpiry": 43200,
  "iosTopic": "com.sun.Way2Online.Way2Money",
  "original_sms_process_db": {
    "uri": "mongodb://172.16.20.208:27017/way2money-data-test"
  },
  "live_sms_process_db": {
    "uri": "mongodb://172.16.20.208:27017/way2money-data-2"
  },
  "sync_sms_remove_url" : "http://localhost:8709/mobile/data-remove/remove-live-sync-data",
  "process_sms_remove_url" : "http://localhost:8708/mobile/data-remove/remove-live-process-data",
  "predictAmountURL" : "http://stats.way2money.com/api/predict/",
  "predictAmountURLl" : "http://172.16.20.208:3001/api/predict/",
  "smsURL": "http://172.16.20.117:8731/send-sms",
  "maxAmountForUser" : 5000,
  "DaysForLastRePredictedCheckDate" : 7,
  "npaStartDate":1533081600000
}